<svg xmlns="http://www.w3.org/2000/svg" width="20" height="15" viewBox="0 0 20 15">
  <path id="icon-image" d="M18.125,79H1.875A1.875,1.875,0,0,1,0,77.125V65.875A1.875,1.875,0,0,1,1.875,64h16.25A1.875,1.875,0,0,1,20,65.875v11.25A1.875,1.875,0,0,1,18.125,79ZM4.375,66.188a2.188,2.188,0,1,0,2.188,2.188A2.187,2.187,0,0,0,4.375,66.188ZM2.5,76.5h15V72.125l-3.419-3.419a.469.469,0,0,0-.663,0L8.125,74,5.956,71.831a.469.469,0,0,0-.663,0L2.5,74.625Z" transform="translate(0 -64)" fill="#0c84c8"/>
</svg>
