<svg xmlns="http://www.w3.org/2000/svg" width="9.714" height="9.714" viewBox="0 0 9.714 9.714">
  <path id="icon-edit-pen" d="M5.506,1.776,7.934,4.205,2.66,9.48.495,9.719a.455.455,0,0,1-.5-.5L.233,7.049,5.506,1.776Zm3.931-.362L8.3.274a.911.911,0,0,0-1.288,0L5.935,1.347,8.364,3.776,9.437,2.7a.911.911,0,0,0,0-1.288Z" transform="translate(0.011 -0.008)" fill="#fff"/>
</svg>
