<svg xmlns="http://www.w3.org/2000/svg" width="7.805" height="8.921" viewBox="0 0 7.805 8.921">
  <path id="icon-play" d="M7.394,3.772,1.261.146A.832.832,0,0,0,0,.866V8.115a.836.836,0,0,0,1.261.72L7.394,5.211a.835.835,0,0,0,0-1.439Z" transform="translate(0 -0.032)" fill="#fff"/>
</svg>
