<svg xmlns="http://www.w3.org/2000/svg" width="12" height="2.571" viewBox="0 0 12 2.571">
  <path id="icon-minus" d="M11.143,36.714H.857A.857.857,0,0,0,0,37.571v.857a.857.857,0,0,0,.857.857H11.143A.857.857,0,0,0,12,38.429v-.857A.857.857,0,0,0,11.143,36.714Z" transform="translate(0 -36.714)" fill="#fff"/>
</svg>
