<?xml version="1.0" encoding="utf-8"?>
<!-- Generator: Adobe Illustrator 22.0.0, SVG Export Plug-In . SVG Version: 6.00 Build 0)  -->
<svg version="1.1" id="Layer_1" xmlns="http://www.w3.org/2000/svg" xmlns:xlink="http://www.w3.org/1999/xlink" x="0px" y="0px"
	 viewBox="0 0 9.4 8.9" style="enable-background:new 0 0 9.4 8.9;" xml:space="preserve">
<style type="text/css">
	.st0{fill:#939598;}
</style>
<g id="icon-angle-double-right" transform="translate(-434.657 -1023.081)">
	<polygon class="st0" points="435.7,1032 434.7,1030.9 438,1027.7 434.7,1024.1 435.8,1023.1 440,1027.7 	"/>
	<polygon class="st0" points="439.7,1032 438.7,1030.9 442,1027.7 438.7,1024.1 439.8,1023.1 444,1027.7 	"/>
</g>
</svg>
