<svg xmlns="http://www.w3.org/2000/svg" width="7.982" height="11.975" viewBox="0 0 7.982 11.975">
  <path id="volume-off-solid" d="M6.7,64.183,3.929,66.958H.748A.748.748,0,0,0,0,67.707V72.2a.748.748,0,0,0,.748.748H3.931L6.7,75.72a.75.75,0,0,0,1.278-.53V64.713A.75.75,0,0,0,6.7,64.183Z" transform="translate(0 -63.964)" fill="#fff"/>
</svg>
